<?xml version="1.0" encoding="UTF-8" standalone="no"?>
<!-- Created with Inkscape (http://www.inkscape.org/) -->

<svg
   xmlns:dc="http://purl.org/dc/elements/1.1/"
   xmlns:cc="http://creativecommons.org/ns#"
   xmlns:rdf="http://www.w3.org/1999/02/22-rdf-syntax-ns#"
   xmlns:svg="http://www.w3.org/2000/svg"
   xmlns="http://www.w3.org/2000/svg"
   xmlns:sodipodi="http://sodipodi.sourceforge.net/DTD/sodipodi-0.dtd"
   xmlns:inkscape="http://www.inkscape.org/namespaces/inkscape"
   width="32"
   height="32"
   viewBox="0 0 31.999999 31.999998"
   id="svg2"
   version="1.1"
   inkscape:version="0.91 r13725"
   sodipodi:docname="charity.svg">
  <defs
     id="defs4" />
  <sodipodi:namedview
     id="base"
     pagecolor="#ffffff"
     bordercolor="#666666"
     borderopacity="1.0"
     inkscape:pageopacity="0.0"
     inkscape:pageshadow="2"
     inkscape:zoom="22.627417"
     inkscape:cx="9.5953102"
     inkscape:cy="14.952094"
     inkscape:document-units="px"
     inkscape:current-layer="layer1"
     showgrid="true"
     objecttolerance="40"
     units="px"
     inkscape:snap-path-clip="true"
     inkscape:snap-path-mask="true"
     guidetolerance="45"
     gridtolerance="44"
     inkscape:window-width="1855"
     inkscape:window-height="1056"
     inkscape:window-x="65"
     inkscape:window-y="24"
     inkscape:window-maximized="1">
    <inkscape:grid
       type="xygrid"
       id="grid3357"
       empspacing="1" />
  </sodipodi:namedview>
  <metadata
     id="metadata7">
    <rdf:RDF>
      <cc:Work
         rdf:about="">
        <dc:format>image/svg+xml</dc:format>
        <dc:type
           rdf:resource="http://purl.org/dc/dcmitype/StillImage" />
        <dc:title></dc:title>
      </cc:Work>
    </rdf:RDF>
  </metadata>
  <g
     inkscape:label="Layer 1"
     inkscape:groupmode="layer"
     id="layer1"
     transform="translate(0,-1020.3622)">
    <path
       style="stroke:none"
       d="m 1.9999998,1030.3622 -0.99999992,1 c 4.99439302,3.9985 4.99999942,4 4.99999942,9 l 2.9999996,0 c 0,-5 0,-5 4.9999991,-9 l -1,-1 c -5.9999988,5 -4.999999,5 -10.9999982,0 z m 5.4999993,10e-5 c -0.8411825,0 -1.50001,0.6588 -1.4999998,1.5 -1.02e-5,0.8412 0.6588173,1.5 1.4999998,1.5 0.8411825,0 1.50001,-0.6588 1.4999998,-1.5 1.02e-5,-0.8412 -0.6588173,-1.5 -1.4999998,-1.5 z"
       id="path4176-6-4"
       inkscape:connector-curvature="0"
       sodipodi:nodetypes="cccccccssscs" />
    <path
       style="stroke:none"
       d="m 10.999999,1030.3622 -1.0000002,1 c 4.9943922,3.9985 4.9999992,4 4.9999992,9 l 2.999999,0 c 0,-5 0,-5 4.999998,-9 l -0.999999,-1 c -5.999999,5 -4.999999,5 -10.999997,0 z m 5.499998,10e-5 c -0.841182,0 -1.50001,0.6588 -1.499999,1.5 -1.1e-5,0.8412 0.658817,1.5 1.499999,1.5 0.841183,0 1.50001,-0.6588 1.5,-1.5 10e-6,-0.8412 -0.658817,-1.5 -1.5,-1.5 z"
       id="path4176-6-4-4"
       inkscape:connector-curvature="0"
       sodipodi:nodetypes="cccccccssscs" />
    <path
       style="stroke:none"
       d="m 19.999998,1030.3622 -1,1 c 4.994391,3.9985 4.999998,4 4.999998,9 l 2.999999,0 c 0,-5 0,-5 4.999997,-9 l -0.999998,-1 c -5.999999,5 -4.999999,5 -10.999996,0 z m 5.499997,10e-5 c -0.841182,0 -1.50001,0.6588 -1.499999,1.5 -1.1e-5,0.8412 0.658817,1.5 1.499999,1.5 0.841183,0 1.50001,-0.6588 1.5,-1.5 1e-5,-0.8412 -0.658817,-1.5 -1.5,-1.5 z"
       id="path4176-6-4-4-7"
       inkscape:connector-curvature="0"
       sodipodi:nodetypes="cccccccssscs" />
  </g>
</svg>
