<?xml version="1.0" encoding="utf-8"?>
<!-- Generated by IcoMoon.io -->
<!DOCTYPE svg PUBLIC "-//W3C//DTD SVG 1.1//EN" "http://www.w3.org/Graphics/SVG/1.1/DTD/svg11.dtd">
<svg version="1.1" xmlns="http://www.w3.org/2000/svg" xmlns:xlink="http://www.w3.org/1999/xlink" width="32" height="32" viewBox="0 0 32 32">
<path fill="#000000" d="M15.143 9.7l-0.85 0.512 1.284 2.053c0.075 0.119 0.201 0.204 0.34 0.228s0.287-0.015 0.396-0.102l4.481-3.585 4.745 11.387c0.035 0.084 0.094 0.158 0.167 0.212s0.162 0.086 0.253 0.094c0.091 0.007 0.184-0.011 0.265-0.051s0.151-0.104 0.2-0.182l5-8-0.848-0.53-4.487 7.179-4.628-11.106c-0.059-0.142-0.188-0.254-0.338-0.292s-0.316-0.002-0.436 0.094l-4.562 3.649z"></path>
</svg>
