<?xml version="1.0" encoding="utf-8"?>
<!-- Generated by IcoMoon.io -->
<!DOCTYPE svg PUBLIC "-//W3C//DTD SVG 1.1//EN" "http://www.w3.org/Graphics/SVG/1.1/DTD/svg11.dtd">
<svg version="1.1" xmlns="http://www.w3.org/2000/svg" xmlns:xlink="http://www.w3.org/1999/xlink" width="32" height="32" viewBox="0 0 32 32">
<path fill="#000000" d="M25.039 16.39l-0.901 0.445 1.4 3.357c0.035 0.084 0.094 0.158 0.167 0.212s0.162 0.086 0.253 0.094c0.091 0.007 0.184-0.011 0.265-0.051s0.151-0.104 0.2-0.182l4.667-7.467 0.909 0.975v-1.322l-0.646-0.804c-0.106-0.106-0.261-0.16-0.41-0.143s-0.288 0.105-0.367 0.232l-4.487 7.179zM11.006 3.5c-0.099-0.001-0.198 0.028-0.281 0.082s-0.149 0.134-0.187 0.225l-4.937 11.848-4.602 2.762v1.165l5.257-3.154c0.091-0.055 0.163-0.139 0.204-0.236l4.628-11.106 3.206 5.125 0.848-0.508-3.719-5.969c-0.088-0.141-0.251-0.233-0.418-0.235z"></path>
</svg>
