<?xml version="1.0" encoding="utf-8"?>
<!-- Generated by IcoMoon.io -->
<!DOCTYPE svg PUBLIC "-//W3C//DTD SVG 1.1//EN" "http://www.w3.org/Graphics/SVG/1.1/DTD/svg11.dtd">
<svg version="1.1" xmlns="http://www.w3.org/2000/svg" xmlns:xlink="http://www.w3.org/1999/xlink" width="32" height="32" viewBox="0 0 32 32">
<path fill="#000000" d="M26 29h5v2h-5zM20 26h5v5h-5zM14 23h5v8h-5zM8 20h5v11h-5zM2.066 17h4.867c0.037 0 0.066 0.030 0.066 0.066v13.867c0 0.037-0.030 0.066-0.066 0.066h-4.867c-0.037 0-0.066-0.030-0.066-0.066v-13.867c0-0.037 0.030-0.066 0.066-0.066zM7 32c-4 0-2 0 0 0z"></path>
</svg>
