<?xml version="1.0" encoding="utf-8"?>
<!-- Generated by IcoMoon.io -->
<!DOCTYPE svg PUBLIC "-//W3C//DTD SVG 1.1//EN" "http://www.w3.org/Graphics/SVG/1.1/DTD/svg11.dtd">
<svg version="1.1" xmlns="http://www.w3.org/2000/svg" xmlns:xlink="http://www.w3.org/1999/xlink" width="32" height="32" viewBox="0 0 32 32">
<path fill="#000000" d="M27.42 5.676c0-0.604-0.491-1.098-1.097-1.098h-20.645c-0.606 0-1.098 0.494-1.098 1.098 0 0.46 0.285 0.852 0.688 1.015v14.817c0 0.226 0.184 0.41 0.41 0.41h9.915v2.064l-6.625 2.648c-0.211 0.085-0.313 0.323-0.228 0.534 0.063 0.16 0.216 0.257 0.379 0.257 0.051 0 0.103-0.010 0.152-0.029l6.731-2.691 6.729 2.691c0.051 0.019 0.103 0.029 0.153 0.029 0.163 0 0.316-0.098 0.38-0.257 0.084-0.21-0.019-0.449-0.228-0.534l-6.625-2.648v-2.064h9.91c0.227 0 0.409-0.184 0.409-0.41v-14.817c0.405-0.163 0.69-0.555 0.69-1.015zM5.678 5.399h20.645c0.153 0 0.279 0.125 0.279 0.278s-0.125 0.279-0.279 0.279h-20.645c-0.154 0-0.278-0.125-0.278-0.279 0-0.153 0.124-0.278 0.278-0.278zM25.914 21.099h-19.826v-14.324h19.826v14.324z"></path>
<path fill="#000000" d="M8.431 19.166c0.121 0 0.239-0.053 0.32-0.154l4.799-5.987 4.036 3.293 5.617-6.941c0.142-0.176 0.115-0.434-0.062-0.577-0.176-0.141-0.434-0.115-0.576 0.061l-5.099 6.301-4.039-3.296-5.316 6.633c-0.142 0.176-0.113 0.434 0.063 0.577 0.076 0.060 0.168 0.090 0.257 0.090z"></path>
</svg>
