<?xml version="1.0" encoding="utf-8"?>
<!-- Generated by IcoMoon.io -->
<!DOCTYPE svg PUBLIC "-//W3C//DTD SVG 1.1//EN" "http://www.w3.org/Graphics/SVG/1.1/DTD/svg11.dtd">
<svg version="1.1" xmlns="http://www.w3.org/2000/svg" xmlns:xlink="http://www.w3.org/1999/xlink" width="32" height="32" viewBox="0 0 32 32">
<path fill="#000000" d="M1.824 9c-0.824 0.004-0.824 0.063-0.824 1v12c0 1 0 1 1 1h28c1 0 1 0 1-1v-12c0-1 0-1-1-1h-28c-0.063 0-0.121-0-0.176 0zM2 10h17v12h-17v-12zM20 10h10v12h-10v-12z"></path>
</svg>
